(module LOGO (layer F.Cu)
  (at 0 0)
 (fp_text reference "G***" (at 0 0) (layer F.SilkS) hide
  (effects (font (thickness 0.3)))
  )
  (fp_text value "LOGO" (at 0.75 0) (layer F.SilkS) hide
  (effects (font (thickness 0.3)))
  )
  (fp_poly (pts (xy -10.495385 -3.799698) (xy -10.475234 -3.771740) (xy -10.446851 -3.729803) (xy -10.412838 -3.677677) (xy -10.397197 -3.653182) (xy -10.297844 -3.496588) (xy -8.009597 -3.488578) (xy -7.720802 -3.487579)
     (xy -7.456246 -3.486669) (xy -7.214771 -3.485809) (xy -6.995214 -3.484961) (xy -6.796418 -3.484087) (xy -6.617220 -3.483149) (xy -6.456463 -3.482109) (xy -6.312985 -3.480930) (xy -6.185626 -3.479572)
     (xy -6.073227 -3.477999) (xy -5.974627 -3.476173) (xy -5.888666 -3.474055) (xy -5.814185 -3.471607) (xy -5.750024 -3.468792) (xy -5.695021 -3.465572) (xy -5.648018 -3.461908) (xy -5.607854 -3.457763)
     (xy -5.573369 -3.453098) (xy -5.543404 -3.447877) (xy -5.516798 -3.442060) (xy -5.492391 -3.435610) (xy -5.469023 -3.428489) (xy -5.445534 -3.420659) (xy -5.420764 -3.412082) (xy -5.394450 -3.403025)
     (xy -5.212367 -3.328272) (xy -5.037188 -3.230852) (xy -4.872113 -3.113225) (xy -4.720344 -2.977850) (xy -4.585083 -2.827190) (xy -4.506228 -2.720310) (xy -4.402338 -2.545740) (xy -4.322860 -2.365077)
     (xy -4.267860 -2.179455) (xy -4.237398 -1.990007) (xy -4.231540 -1.797868) (xy -4.250347 -1.604174) (xy -4.293884 -1.410058) (xy -4.362214 -1.216655) (xy -4.415844 -1.100019) (xy -4.437426 -1.058204)
     (xy -4.468388 -0.999934) (xy -4.506610 -0.929051) (xy -4.549969 -0.849401) (xy -4.596342 -0.764828) (xy -4.643609 -0.679174) (xy -4.689647 -0.596285) (xy -4.732334 -0.520005) (xy -4.769548 -0.454177)
     (xy -4.799167 -0.402646) (xy -4.819070 -0.369256) (xy -4.820417 -0.367104) (xy -4.846076 -0.322937) (xy -4.878175 -0.262545) (xy -4.913620 -0.192318) (xy -4.949317 -0.118645) (xy -4.982171 -0.047916)
     (xy -5.009087 0.013478) (xy -5.026971 0.059149) (xy -5.027281 0.060048) (xy -5.068332 0.216536) (xy -5.088669 0.383188) (xy -5.087923 0.554961) (xy -5.073089 0.685451) (xy -5.031078 0.870233)
     (xy -4.967634 1.043674) (xy -4.884210 1.204366) (xy -4.782258 1.350901) (xy -4.663232 1.481873) (xy -4.528584 1.595875) (xy -4.379766 1.691498) (xy -4.218232 1.767338) (xy -4.045435 1.821985)
     (xy -3.867140 1.853559) (xy -3.846760 1.854794) (xy -3.808134 1.855965) (xy -3.750936 1.857072) (xy -3.674842 1.858117) (xy -3.579529 1.859100) (xy -3.464673 1.860022) (xy -3.329949 1.860883)
     (xy -3.175033 1.861686) (xy -2.999601 1.862429) (xy -2.803329 1.863115) (xy -2.585893 1.863743) (xy -2.346969 1.864315) (xy -2.086232 1.864831) (xy -1.803359 1.865292) (xy -1.498025 1.865700)
     (xy -1.169906 1.866054) (xy -0.818679 1.866355) (xy -0.444019 1.866605) (xy -0.045602 1.866803) (xy 0.376897 1.866952) (xy 0.823801 1.867050) (xy 1.295434 1.867100) (xy 1.792120 1.867103)
     (xy 1.827299 1.867101) (xy 2.343591 1.867104) (xy 2.834588 1.867164) (xy 3.300395 1.867282) (xy 3.741118 1.867458) (xy 4.156862 1.867692) (xy 4.547732 1.867984) (xy 4.913832 1.868335)
     (xy 5.255269 1.868744) (xy 5.572147 1.869212) (xy 5.864572 1.869740) (xy 6.132649 1.870327) (xy 6.376482 1.870974) (xy 6.596177 1.871681) (xy 6.791840 1.872448) (xy 6.963574 1.873276)
     (xy 7.111487 1.874164) (xy 7.235681 1.875113) (xy 7.336264 1.876123) (xy 7.413340 1.877195) (xy 7.467014 1.878328) (xy 7.497391 1.879524) (xy 7.502844 1.879994) (xy 7.704140 1.917700)
     (xy 7.897198 1.978505) (xy 8.080540 2.061024) (xy 8.252693 2.163873) (xy 8.412179 2.285668) (xy 8.557523 2.425025) (xy 8.687250 2.580558) (xy 8.799883 2.750885) (xy 8.893947 2.934621)
     (xy 8.967967 3.130380) (xy 9.011964 3.295650) (xy 9.022421 3.355284) (xy 9.029262 3.424281) (xy 9.032878 3.508136) (xy 9.033702 3.600450) (xy 9.033033 3.682621) (xy 9.030973 3.746144)
     (xy 9.026827 3.797759) (xy 9.019901 3.844209) (xy 9.009502 3.892234) (xy 8.999718 3.930650) (xy 8.979146 3.999454) (xy 8.953278 4.073160) (xy 8.926628 4.139230) (xy 8.917462 4.159250)
     (xy 8.896608 4.200606) (xy 8.865681 4.259013) (xy 8.826121 4.331944) (xy 8.779369 4.416874) (xy 8.726863 4.511278) (xy 8.670045 4.612632) (xy 8.610353 4.718409) (xy 8.549227 4.826085)
     (xy 8.488108 4.933134) (xy 8.428436 5.037032) (xy 8.371649 5.135253) (xy 8.319188 5.225272) (xy 8.272494 5.304565) (xy 8.233004 5.370605) (xy 8.202161 5.420867) (xy 8.181402 5.452828)
     (xy 8.174813 5.461681) (xy 8.161599 5.473327) (xy 8.142447 5.480685) (xy 8.111865 5.484696) (xy 8.064360 5.486297) (xy 8.029699 5.486490) (xy 7.963385 5.487435) (xy 7.894807 5.489874)
     (xy 7.835790 5.493345) (xy 7.820025 5.494676) (xy 7.777197 5.497848) (xy 7.746464 5.498457) (xy 7.734309 5.496384) (xy 7.734300 5.496286) (xy 7.740724 5.484204) (xy 7.758841 5.453425)
     (xy 7.786915 5.406812) (xy 7.823209 5.347229) (xy 7.865989 5.277538) (xy 7.913518 5.200603) (xy 7.914371 5.199227) (xy 8.027474 5.014544) (xy 8.132932 4.837984) (xy 8.229956 4.671020)
     (xy 8.317760 4.515121) (xy 8.395557 4.371760) (xy 8.462560 4.242407) (xy 8.517983 4.128533) (xy 8.561037 4.031609) (xy 8.590937 3.953106) (xy 8.603206 3.911600) (xy 8.619388 3.822958)
     (xy 8.629560 3.718365) (xy 8.633467 3.606608) (xy 8.630855 3.496473) (xy 8.621470 3.396749) (xy 8.618637 3.378089) (xy 8.576883 3.193624) (xy 8.514741 3.021844) (xy 8.433275 2.864050)
     (xy 8.333549 2.721544) (xy 8.216625 2.595629) (xy 8.083566 2.487605) (xy 7.935436 2.398776) (xy 7.773297 2.330442) (xy 7.759337 2.325763) (xy 7.740083 2.319225) (xy 7.722859 2.313119)
     (xy 7.706790 2.307430) (xy 7.690998 2.302141) (xy 7.674608 2.297233) (xy 7.656744 2.292691) (xy 7.636528 2.288497) (xy 7.613085 2.284634) (xy 7.585538 2.281086) (xy 7.553010 2.277834)
     (xy 7.514627 2.274862) (xy 7.469510 2.272154) (xy 7.416784 2.269691) (xy 7.355573 2.267457) (xy 7.284999 2.265435) (xy 7.204188 2.263608) (xy 7.112262 2.261959) (xy 7.008345 2.260471)
     (xy 6.891561 2.259126) (xy 6.761033 2.257908) (xy 6.615885 2.256800) (xy 6.455241 2.255784) (xy 6.278224 2.254844) (xy 6.083958 2.253963) (xy 5.871567 2.253123) (xy 5.640174 2.252308)
     (xy 5.388903 2.251500) (xy 5.116878 2.250683) (xy 4.823222 2.249839) (xy 4.507059 2.248951) (xy 4.167512 2.248003) (xy 3.803706 2.246977) (xy 3.689350 2.246650) (xy 3.124290 2.245000)
     (xy 2.584221 2.243358) (xy 2.068730 2.241721) (xy 1.577408 2.240086) (xy 1.109844 2.238449) (xy 0.665627 2.236810) (xy 0.244347 2.235163) (xy -0.154407 2.233507) (xy -0.531044 2.231838)
     (xy -0.885976 2.230154) (xy -1.219613 2.228451) (xy -1.532366 2.226727) (xy -1.824645 2.224979) (xy -2.096860 2.223203) (xy -2.349423 2.221397) (xy -2.582743 2.219558) (xy -2.797231 2.217683)
     (xy -2.993298 2.215769) (xy -3.171354 2.213813) (xy -3.331810 2.211812) (xy -3.475076 2.209764) (xy -3.601563 2.207665) (xy -3.711681 2.205512) (xy -3.805840 2.203302) (xy -3.884452 2.201034)
     (xy -3.947926 2.198702) (xy -3.996674 2.196305) (xy -4.031105 2.193841) (xy -4.051300 2.191366) (xy -4.245378 2.145575) (xy -4.423324 2.081574) (xy -4.588255 1.997727) (xy -4.743285 1.892397)
     (xy -4.891530 1.763948) (xy -4.921597 1.734380) (xy -5.061011 1.578304) (xy -5.179040 1.410821) (xy -5.276547 1.230308) (xy -5.354395 1.035141) (xy -5.413446 0.823697) (xy -5.419018 0.798509)
     (xy -5.428542 0.746316) (xy -5.435173 0.689010) (xy -5.439275 0.621155) (xy -5.441211 0.537317) (xy -5.441468 0.463550) (xy -5.439754 0.353033) (xy -5.434145 0.257844) (xy -5.423181 0.173109)
     (xy -5.405403 0.093952) (xy -5.379352 0.015499) (xy -5.343568 -0.067126) (xy -5.296593 -0.158797) (xy -5.236966 -0.264389) (xy -5.209592 -0.311030) (xy -5.161570 -0.393693) (xy -5.107105 -0.489801)
     (xy -5.051314 -0.590179) (xy -4.999316 -0.685656) (xy -4.971942 -0.737009) (xy -4.931805 -0.812402) (xy -4.891774 -0.886329) (xy -4.854792 -0.953446) (xy -4.823804 -1.008404) (xy -4.802742 -1.044252)
     (xy -4.733012 -1.166263) (xy -4.679983 -1.278888) (xy -4.640956 -1.389137) (xy -4.613230 -1.504019) (xy -4.603260 -1.562100) (xy -4.587021 -1.743257) (xy -4.593015 -1.922017) (xy -4.620165 -2.096193)
     (xy -4.667394 -2.263599) (xy -4.733626 -2.422049) (xy -4.817783 -2.569356) (xy -4.918789 -2.703333) (xy -5.035568 -2.821796) (xy -5.167042 -2.922557) (xy -5.312134 -3.003429) (xy -5.313402 -3.004016)
     (xy -5.370043 -3.027724) (xy -5.438364 -3.052797) (xy -5.505381 -3.074527) (xy -5.518150 -3.078247) (xy -5.569868 -3.092332) (xy -5.618954 -3.104023) (xy -5.668158 -3.113458) (xy -5.720232 -3.120771)
     (xy -5.777926 -3.126100) (xy -5.843992 -3.129581) (xy -5.921180 -3.131350) (xy -6.012240 -3.131543) (xy -6.119925 -3.130297) (xy -6.246984 -3.127748) (xy -6.396170 -3.124032) (xy -6.426090 -3.123237)
     (xy -6.566124 -3.120096) (xy -6.731546 -3.117496) (xy -6.922349 -3.115435) (xy -7.138525 -3.113914) (xy -7.380070 -3.112934) (xy -7.646974 -3.112493) (xy -7.939233 -3.112593) (xy -8.256839 -3.113232)
     (xy -8.556049 -3.114237) (xy -10.120748 -3.120377) (xy -10.106849 -3.093714) (xy -10.095438 -3.073174) (xy -10.073976 -3.035699) (xy -10.045316 -2.986230) (xy -10.012309 -2.929711) (xy -10.004735 -2.916799)
     (xy -9.973037 -2.861890) (xy -9.947128 -2.815237) (xy -9.929209 -2.780945) (xy -9.921481 -2.763115) (xy -9.921476 -2.761592) (xy -9.934075 -2.764567) (xy -9.968867 -2.774777) (xy -10.023890 -2.791602)
     (xy -10.097184 -2.814422) (xy -10.186785 -2.842620) (xy -10.290731 -2.875575) (xy -10.407062 -2.912669) (xy -10.533814 -2.953283) (xy -10.669026 -2.996798) (xy -10.759899 -3.026143) (xy -10.899186 -3.071341)
     (xy -11.030936 -3.114400) (xy -11.153225 -3.154673) (xy -11.264129 -3.191511) (xy -11.361726 -3.224267) (xy -11.444090 -3.252291) (xy -11.509300 -3.274936) (xy -11.555430 -3.291553) (xy -11.580558 -3.301495)
     (xy -11.584708 -3.304080) (xy -11.571738 -3.311079) (xy -11.538578 -3.327416) (xy -11.488002 -3.351789) (xy -11.422788 -3.382899) (xy -11.345713 -3.419446) (xy -11.259552 -3.460128) (xy -11.167083 -3.503646)
     (xy -11.071082 -3.548699) (xy -10.974324 -3.593987) (xy -10.879588 -3.638209) (xy -10.789648 -3.680066) (xy -10.707283 -3.718257) (xy -10.635268 -3.751481) (xy -10.576379 -3.778438) (xy -10.533394 -3.797828)
     (xy -10.509088 -3.808351) (xy -10.504707 -3.809888) (xy -10.495385 -3.799698) )(layer F.SilkS) (width  0.010000)
  )
  (fp_poly (pts (xy -7.895344 -2.753671) (xy -7.700523 -2.753463) (xy -7.497944 -2.753132) (xy -7.407276 -2.752948) (xy -5.708650 -2.749287) (xy -5.607050 -2.720918) (xy -5.460282 -2.669691) (xy -5.333239 -2.603162)
     (xy -5.225423 -2.520714) (xy -5.136337 -2.421733) (xy -5.065484 -2.305602) (xy -5.012366 -2.171706) (xy -4.976485 -2.019428) (xy -4.963580 -1.924401) (xy -4.957209 -1.837150) (xy -4.957363 -1.753034)
     (xy -4.964892 -1.669439) (xy -4.980646 -1.583747) (xy -5.005476 -1.493344) (xy -5.040232 -1.395614) (xy -5.085765 -1.287940) (xy -5.142924 -1.167708) (xy -5.212561 -1.032301) (xy -5.295526 -0.879103)
     (xy -5.314653 -0.844550) (xy -5.415126 -0.659595) (xy -5.501132 -0.492101) (xy -5.573698 -0.339403) (xy -5.633849 -0.198834) (xy -5.682611 -0.067729) (xy -5.721009 0.056579) (xy -5.750070 0.176755)
     (xy -5.770819 0.295467) (xy -5.779270 0.363032) (xy -5.788498 0.560705) (xy -5.774950 0.763599) (xy -5.739675 0.968137) (xy -5.683725 1.170741) (xy -5.608151 1.367834) (xy -5.514002 1.555837)
     (xy -5.402330 1.731174) (xy -5.361277 1.786336) (xy -5.215413 1.954387) (xy -5.052845 2.103559) (xy -4.874234 2.233511) (xy -4.680240 2.343901) (xy -4.471525 2.434389) (xy -4.248748 2.504634)
     (xy -4.012572 2.554293) (xy -3.829391 2.577604) (xy -3.803273 2.578848) (xy -3.752046 2.580031) (xy -3.675696 2.581154) (xy -3.574208 2.582217) (xy -3.447568 2.583219) (xy -3.295760 2.584161)
     (xy -3.118770 2.585042) (xy -2.916582 2.585863) (xy -2.689181 2.586623) (xy -2.436554 2.587324) (xy -2.158684 2.587964) (xy -1.855557 2.588544) (xy -1.527158 2.589063) (xy -1.173472 2.589523)
     (xy -0.794485 2.589922) (xy -0.390180 2.590261) (xy 0.039456 2.590541) (xy 0.494439 2.590760) (xy 0.974783 2.590919) (xy 1.480503 2.591018) (xy 1.785016 2.591048) (xy 2.235089 2.591070)
     (xy 2.660481 2.591082) (xy 3.061908 2.591092) (xy 3.440090 2.591108) (xy 3.795744 2.591141) (xy 4.129588 2.591197) (xy 4.442340 2.591286) (xy 4.734718 2.591416) (xy 5.007440 2.591597)
     (xy 5.261224 2.591837) (xy 5.496788 2.592143) (xy 5.714850 2.592526) (xy 5.916129 2.592994) (xy 6.101342 2.593555) (xy 6.271206 2.594218) (xy 6.426441 2.594991) (xy 6.567765 2.595884)
     (xy 6.695894 2.596905) (xy 6.811547 2.598062) (xy 6.915443 2.599365) (xy 7.008299 2.600822) (xy 7.090833 2.602441) (xy 7.163763 2.604231) (xy 7.227808 2.606201) (xy 7.283685 2.608360)
     (xy 7.332112 2.610716) (xy 7.373807 2.613277) (xy 7.409489 2.616053) (xy 7.439875 2.619052) (xy 7.465683 2.622283) (xy 7.487632 2.625755) (xy 7.506439 2.629475) (xy 7.522822 2.633453)
     (xy 7.537499 2.637697) (xy 7.551189 2.642217) (xy 7.564610 2.647020) (xy 7.578478 2.652115) (xy 7.593513 2.657511) (xy 7.604144 2.661148) (xy 7.757738 2.723693) (xy 7.894353 2.802317)
     (xy 8.012963 2.895549) (xy 8.112544 3.001919) (xy 8.192070 3.119957) (xy 8.250515 3.248192) (xy 8.286856 3.385154) (xy 8.300065 3.529372) (xy 8.293244 3.649360) (xy 8.285271 3.705873)
     (xy 8.274800 3.761018) (xy 8.260922 3.816715) (xy 8.242727 3.874882) (xy 8.219306 3.937440) (xy 8.189748 4.006306) (xy 8.153144 4.083399) (xy 8.108585 4.170640) (xy 8.055160 4.269947)
     (xy 7.991960 4.383238) (xy 7.918075 4.512434) (xy 7.832596 4.659453) (xy 7.738484 4.819650) (xy 7.676510 4.924874) (xy 7.617078 5.025992) (xy 7.561741 5.120345) (xy 7.512053 5.205274)
     (xy 7.469567 5.278121) (xy 7.435837 5.336229) (xy 7.412416 5.376939) (xy 7.403159 5.393352) (xy 7.376103 5.438244) (xy 7.353550 5.464504) (xy 7.330797 5.477174) (xy 7.323237 5.479077)
     (xy 7.302667 5.480658) (xy 7.260341 5.481978) (xy 7.199643 5.483043) (xy 7.123958 5.483856) (xy 7.036671 5.484422) (xy 6.941165 5.484746) (xy 6.840825 5.484833) (xy 6.739037 5.484687)
     (xy 6.639183 5.484312) (xy 6.544650 5.483714) (xy 6.458820 5.482897) (xy 6.385080 5.481865) (xy 6.326813 5.480623) (xy 6.287403 5.479176) (xy 6.270625 5.477645) (xy 6.251877 5.471083)
     (xy 6.248400 5.468258) (xy 6.254423 5.456878) (xy 6.271897 5.424915) (xy 6.299927 5.373985) (xy 6.337619 5.305703) (xy 6.384079 5.221685) (xy 6.438412 5.123546) (xy 6.499724 5.012902)
     (xy 6.567121 4.891368) (xy 6.639709 4.760560) (xy 6.716593 4.622093) (xy 6.775450 4.516147) (xy 6.854941 4.373022) (xy 6.930792 4.236324) (xy 7.002110 4.107672) (xy 7.068000 3.988686)
     (xy 7.127566 3.880987) (xy 7.179914 3.786193) (xy 7.224148 3.705926) (xy 7.259375 3.641804) (xy 7.284700 3.595449) (xy 7.299227 3.568479) (xy 7.302500 3.561959) (xy 7.289934 3.561574)
     (xy 7.252772 3.561180) (xy 7.191819 3.560777) (xy 7.107880 3.560367) (xy 7.001759 3.559951) (xy 6.874259 3.559532) (xy 6.726186 3.559109) (xy 6.558345 3.558685) (xy 6.371538 3.558261)
     (xy 6.166572 3.557837) (xy 5.944250 3.557416) (xy 5.705376 3.556999) (xy 5.450756 3.556586) (xy 5.181194 3.556181) (xy 4.897493 3.555782) (xy 4.600460 3.555393) (xy 4.290897 3.555014)
     (xy 3.969609 3.554647) (xy 3.637401 3.554292) (xy 3.295078 3.553952) (xy 2.943443 3.553628) (xy 2.583301 3.553320) (xy 2.215457 3.553031) (xy 1.840714 3.552761) (xy 1.628775 3.552620)
     (xy 1.174770 3.552321) (xy 0.745460 3.552028) (xy 0.340139 3.551737) (xy -0.041899 3.551446) (xy -0.401360 3.551152) (xy -0.738950 3.550851) (xy -1.055373 3.550540) (xy -1.351337 3.550216)
     (xy -1.627545 3.549877) (xy -1.884705 3.549519) (xy -2.123522 3.549138) (xy -2.344701 3.548733) (xy -2.548948 3.548299) (xy -2.736969 3.547834) (xy -2.909469 3.547334) (xy -3.067154 3.546797)
     (xy -3.210731 3.546219) (xy -3.340904 3.545597) (xy -3.458379 3.544929) (xy -3.563862 3.544210) (xy -3.658058 3.543439) (xy -3.741674 3.542611) (xy -3.815415 3.541724) (xy -3.879986 3.540775)
     (xy -3.936093 3.539760) (xy -3.984443 3.538677) (xy -4.025740 3.537522) (xy -4.060690 3.536293) (xy -4.089999 3.534985) (xy -4.114373 3.533597) (xy -4.134517 3.532125) (xy -4.151138 3.530566)
     (xy -4.164940 3.528916) (xy -4.176629 3.527173) (xy -4.176815 3.527142) (xy -4.448381 3.470631) (xy -4.714469 3.392270) (xy -4.971711 3.293375) (xy -5.216738 3.175259) (xy -5.446183 3.039238)
     (xy -5.473700 3.020974) (xy -5.582090 2.946170) (xy -5.675261 2.877003) (xy -5.760583 2.807492) (xy -5.845425 2.731654) (xy -5.929706 2.650844) (xy -6.112163 2.454218) (xy -6.272922 2.244487)
     (xy -6.411782 2.022073) (xy -6.528544 1.787399) (xy -6.623007 1.540888) (xy -6.694969 1.282965) (xy -6.744231 1.014050) (xy -6.757424 0.904580) (xy -6.763051 0.827495) (xy -6.766418 0.731567)
     (xy -6.767649 0.622379) (xy -6.766865 0.505513) (xy -6.764189 0.386554) (xy -6.759742 0.271083) (xy -6.753646 0.164683) (xy -6.746024 0.072938) (xy -6.737781 0.006350) (xy -6.711563 -0.140743)
     (xy -6.678900 -0.283083) (xy -6.638492 -0.424072) (xy -6.589045 -0.567109) (xy -6.529259 -0.715596) (xy -6.457839 -0.872933) (xy -6.373486 -1.042523) (xy -6.274905 -1.227765) (xy -6.249282 -1.274389)
     (xy -6.200128 -1.363657) (xy -6.152408 -1.450881) (xy -6.107650 -1.533218) (xy -6.067382 -1.607825) (xy -6.033131 -1.671857) (xy -6.006426 -1.722471) (xy -5.988793 -1.756824) (xy -5.981762 -1.772072)
     (xy -5.981700 -1.772437) (xy -5.994122 -1.773201) (xy -6.030270 -1.773934) (xy -6.088474 -1.774629) (xy -6.167059 -1.775279) (xy -6.264355 -1.775876) (xy -6.378687 -1.776414) (xy -6.508383 -1.776886)
     (xy -6.651772 -1.777284) (xy -6.807180 -1.777601) (xy -6.972934 -1.777831) (xy -7.147362 -1.777966) (xy -7.294098 -1.778000) (xy -8.606495 -1.778000) (xy -8.856198 -2.259528) (xy -8.909031 -2.361587)
     (xy -8.958055 -2.456630) (xy -9.002068 -2.542299) (xy -9.039867 -2.616237) (xy -9.070248 -2.676088) (xy -9.092010 -2.719495) (xy -9.103950 -2.744100) (xy -9.105901 -2.748832) (xy -9.093446 -2.749746)
     (xy -9.057061 -2.750576) (xy -8.998217 -2.751318) (xy -8.918384 -2.751969) (xy -8.819031 -2.752525) (xy -8.701629 -2.752983) (xy -8.567649 -2.753338) (xy -8.418560 -2.753589) (xy -8.255833 -2.753730)
     (xy -8.080938 -2.753758) (xy -7.895344 -2.753671) )(layer F.SilkS) (width  0.010000)
  )
  (fp_poly (pts (xy -2.871688 3.876675) (xy -2.881208 3.893925) (xy -2.901774 3.930647) (xy -2.931905 3.984216) (xy -2.970123 4.052008) (xy -3.014946 4.131397) (xy -3.064896 4.219759) (xy -3.118491 4.314468)
     (xy -3.124086 4.324350) (xy -3.189477 4.439832) (xy -3.261423 4.566893) (xy -3.336408 4.699326) (xy -3.410918 4.830923) (xy -3.481437 4.955474) (xy -3.544450 5.066772) (xy -3.568116 5.108575)
     (xy -3.774830 5.473700) (xy -4.887704 5.473700) (xy -4.749251 5.229225) (xy -4.714483 5.167806) (xy -4.669162 5.087709) (xy -4.615232 4.992366) (xy -4.554635 4.885214) (xy -4.489312 4.769688)
     (xy -4.421208 4.649221) (xy -4.352263 4.527250) (xy -4.289774 4.416683) (xy -3.968750 3.848616) (xy -3.412679 3.848358) (xy -2.856607 3.848100) (xy -2.871688 3.876675) )(layer F.SilkS) (width  0.010000)
  )
  (fp_poly (pts (xy -2.076388 3.883025) (xy -2.086033 3.899652) (xy -2.107303 3.936414) (xy -2.139124 3.991449) (xy -2.180419 4.062897) (xy -2.230113 4.148895) (xy -2.287131 4.247583) (xy -2.350397 4.357098)
     (xy -2.418835 4.475580) (xy -2.491371 4.601167) (xy -2.544204 4.692650) (xy -2.991596 5.467350) (xy -3.204561 5.470834) (xy -3.417526 5.474319) (xy -3.402140 5.445434) (xy -3.393250 5.429660)
     (xy -3.372751 5.393819) (xy -3.341750 5.339831) (xy -3.301354 5.269619) (xy -3.252670 5.185102) (xy -3.196804 5.088202) (xy -3.134862 4.980840) (xy -3.067953 4.864936) (xy -2.997182 4.742413)
     (xy -2.972097 4.699000) (xy -2.899499 4.573340) (xy -2.829802 4.452637) (xy -2.764189 4.338948) (xy -2.703844 4.234325) (xy -2.649952 4.140824) (xy -2.603696 4.060499) (xy -2.566261 3.995404)
     (xy -2.538831 3.947595) (xy -2.522588 3.919124) (xy -2.520145 3.914787) (xy -2.482850 3.848125) (xy -2.269407 3.848112) (xy -2.055964 3.848100) (xy -2.076388 3.883025) )(layer F.SilkS) (width  0.010000)
  )
  (fp_poly (pts (xy -0.880054 3.850712) (xy -0.781975 3.851254) (xy -0.699056 3.852258) (xy -0.633556 3.853691) (xy -0.587737 3.855520) (xy -0.563859 3.857715) (xy -0.560872 3.859013) (xy -0.567951 3.871463)
     (xy -0.587078 3.903956) (xy -0.617222 3.954760) (xy -0.657349 4.022146) (xy -0.706426 4.104384) (xy -0.763420 4.199744) (xy -0.827298 4.306496) (xy -0.897026 4.422910) (xy -0.971571 4.547256)
     (xy -1.046385 4.671947) (xy -1.527619 5.473700) (xy -2.640426 5.473700) (xy -2.154565 4.664075) (xy -1.668703 3.854450) (xy -1.112649 3.851140) (xy -0.991032 3.850663) (xy -0.880054 3.850712) )(layer F.SilkS) (width  0.010000)
  )
  (fp_poly (pts (xy -5.824963 -4.768678) (xy -5.597936 -4.751138) (xy -5.390591 -4.725781) (xy -5.198188 -4.691776) (xy -5.015989 -4.648293) (xy -4.849050 -4.597790) (xy -4.603134 -4.502844) (xy -4.369834 -4.386635)
     (xy -4.150417 -4.250063) (xy -3.946151 -4.094024) (xy -3.758303 -3.919417) (xy -3.588140 -3.727138) (xy -3.548286 -3.676117) (xy -3.402141 -3.463877) (xy -3.275636 -3.238024) (xy -3.169142 -3.000847)
     (xy -3.083033 -2.754637) (xy -3.017680 -2.501683) (xy -2.973458 -2.244274) (xy -2.950738 -1.984702) (xy -2.949894 -1.725255) (xy -2.971297 -1.468223) (xy -3.015322 -1.215896) (xy -3.082340 -0.970564)
     (xy -3.099569 -0.919578) (xy -3.115724 -0.878793) (xy -3.141773 -0.819584) (xy -3.175796 -0.746016) (xy -3.215876 -0.662151) (xy -3.260094 -0.572054) (xy -3.306533 -0.479788) (xy -3.314832 -0.463550)
     (xy -3.363796 -0.367970) (xy -3.413427 -0.271053) (xy -3.461304 -0.177530) (xy -3.505006 -0.092129) (xy -3.542113 -0.019581) (xy -3.570205 0.035386) (xy -3.571591 0.038100) (xy -3.604997 0.102417)
     (xy -3.638301 0.164616) (xy -3.667929 0.218143) (xy -3.690309 0.256446) (xy -3.692742 0.260350) (xy -3.731534 0.333116) (xy -3.751810 0.398011) (xy -3.752862 0.452125) (xy -3.745264 0.475683)
     (xy -3.721543 0.510294) (xy -3.695700 0.535109) (xy -3.684060 0.542877) (xy -3.670789 0.549840) (xy -3.654537 0.556032) (xy -3.633955 0.561488) (xy -3.607692 0.566243) (xy -3.574398 0.570333)
     (xy -3.532725 0.573791) (xy -3.481322 0.576654) (xy -3.418839 0.578956) (xy -3.343926 0.580733) (xy -3.255235 0.582018) (xy -3.151414 0.582848) (xy -3.031114 0.583257) (xy -2.892986 0.583280)
     (xy -2.735679 0.582952) (xy -2.557844 0.582308) (xy -2.358131 0.581384) (xy -2.135189 0.580214) (xy -1.987550 0.579396) (xy -1.793190 0.578387) (xy -1.582985 0.577445) (xy -1.358024 0.576571)
     (xy -1.119394 0.575764) (xy -0.868180 0.575023) (xy -0.605471 0.574348) (xy -0.332353 0.573737) (xy -0.049914 0.573191) (xy 0.240761 0.572708) (xy 0.538583 0.572289) (xy 0.842466 0.571932)
     (xy 1.151324 0.571637) (xy 1.464068 0.571403) (xy 1.779612 0.571230) (xy 2.096869 0.571117) (xy 2.414752 0.571063) (xy 2.732174 0.571068) (xy 3.048048 0.571131) (xy 3.361288 0.571252)
     (xy 3.670805 0.571429) (xy 3.975514 0.571663) (xy 4.274327 0.571953) (xy 4.566157 0.572297) (xy 4.849917 0.572696) (xy 5.124521 0.573149) (xy 5.388881 0.573655) (xy 5.641910 0.574214)
     (xy 5.882522 0.574825) (xy 6.109629 0.575487) (xy 6.322145 0.576199) (xy 6.518982 0.576962) (xy 6.699054 0.577775) (xy 6.861273 0.578636) (xy 7.004553 0.579545) (xy 7.127807 0.580502)
     (xy 7.229947 0.581507) (xy 7.309886 0.582557) (xy 7.366539 0.583653) (xy 7.397664 0.584729) (xy 7.635781 0.602817) (xy 7.853157 0.629986) (xy 8.052935 0.666678) (xy 8.158553 0.691615)
     (xy 8.424818 0.772110) (xy 8.676231 0.873064) (xy 8.912313 0.993989) (xy 9.132583 1.134402) (xy 9.336561 1.293815) (xy 9.523768 1.471745) (xy 9.693723 1.667705) (xy 9.845947 1.881210)
     (xy 9.979959 2.111775) (xy 10.095279 2.358914) (xy 10.191428 2.622142) (xy 10.242896 2.799650) (xy 10.272112 2.915146) (xy 10.295231 3.017525) (xy 10.312927 3.112428) (xy 10.325871 3.205495)
     (xy 10.334734 3.302368) (xy 10.340188 3.408686) (xy 10.342906 3.530091) (xy 10.343564 3.644900) (xy 10.343510 3.750197) (xy 10.343001 3.834267) (xy 10.341765 3.901283) (xy 10.339531 3.955415)
     (xy 10.336028 4.000837) (xy 10.330982 4.041720) (xy 10.324123 4.082236) (xy 10.315180 4.126558) (xy 10.310896 4.146574) (xy 10.285779 4.245753) (xy 10.250964 4.353599) (xy 10.204627 4.475608)
     (xy 10.188587 4.514874) (xy 10.127282 4.660415) (xy 10.063709 4.806746) (xy 10.000069 4.949022) (xy 9.938563 5.082401) (xy 9.881392 5.202040) (xy 9.830758 5.303096) (xy 9.827289 5.309783)
     (xy 9.750706 5.457016) (xy 9.445296 5.465358) (xy 9.339828 5.467912) (xy 9.224482 5.470153) (xy 9.107740 5.471951) (xy 8.998081 5.473180) (xy 8.903988 5.473711) (xy 8.891118 5.473723)
     (xy 8.642350 5.473746) (xy 8.949070 4.857023) (xy 9.011011 4.731758) (xy 9.069611 4.611863) (xy 9.123740 4.499731) (xy 9.172269 4.397760) (xy 9.214071 4.308344) (xy 9.248016 4.233881)
     (xy 9.272976 4.176765) (xy 9.287822 4.139393) (xy 9.289586 4.134163) (xy 9.322990 4.010760) (xy 9.345289 3.882635) (xy 9.357425 3.742932) (xy 9.360449 3.617611) (xy 9.348755 3.378035)
     (xy 9.313066 3.145566) (xy 9.253610 2.921087) (xy 9.170615 2.705486) (xy 9.078005 2.523303) (xy 8.956059 2.333833) (xy 8.817479 2.163398) (xy 8.662855 2.012362) (xy 8.492776 1.881089)
     (xy 8.307830 1.769944) (xy 8.108608 1.679291) (xy 7.895697 1.609496) (xy 7.669687 1.560924) (xy 7.486650 1.538174) (xy 7.457940 1.536794) (xy 7.404771 1.535474) (xy 7.328084 1.534219)
     (xy 7.228820 1.533033) (xy 7.107919 1.531919) (xy 6.966323 1.530884) (xy 6.804973 1.529929) (xy 6.624809 1.529062) (xy 6.426772 1.528284) (xy 6.211803 1.527601) (xy 5.980844 1.527018)
     (xy 5.734834 1.526538) (xy 5.474715 1.526166) (xy 5.201428 1.525906) (xy 4.915914 1.525762) (xy 4.787900 1.525737) (xy 4.381262 1.525653) (xy 3.975249 1.525488) (xy 3.570685 1.525243)
     (xy 3.168391 1.524923) (xy 2.769192 1.524530) (xy 2.373909 1.524066) (xy 1.983367 1.523534) (xy 1.598389 1.522937) (xy 1.219797 1.522277) (xy 0.848415 1.521558) (xy 0.485066 1.520781)
     (xy 0.130573 1.519951) (xy -0.214242 1.519068) (xy -0.548554 1.518137) (xy -0.871541 1.517160) (xy -1.182380 1.516139) (xy -1.480247 1.515077) (xy -1.764320 1.513978) (xy -2.033775 1.512843)
     (xy -2.287790 1.511675) (xy -2.525540 1.510478) (xy -2.746204 1.509253) (xy -2.948957 1.508004) (xy -3.132978 1.506734) (xy -3.297442 1.505444) (xy -3.441526 1.504138) (xy -3.564409 1.502818)
     (xy -3.665265 1.501487) (xy -3.743273 1.500149) (xy -3.797610 1.498804) (xy -3.827451 1.497457) (xy -3.829050 1.497323) (xy -3.962969 1.477236) (xy -4.093606 1.442786) (xy -4.212719 1.396394)
     (xy -4.266935 1.368599) (xy -4.305738 1.342589) (xy -4.354643 1.303946) (xy -4.406422 1.258606) (xy -4.440107 1.226457) (xy -4.491934 1.172760) (xy -4.530397 1.126412) (xy -4.561793 1.078677)
     (xy -4.592415 1.020818) (xy -4.600902 1.003300) (xy -4.640127 0.916227) (xy -4.668339 0.839160) (xy -4.687138 0.764559) (xy -4.698126 0.684888) (xy -4.702905 0.592606) (xy -4.703434 0.520700)
     (xy -4.702399 0.440270) (xy -4.699512 0.377498) (xy -4.693919 0.324662) (xy -4.684766 0.274039) (xy -4.671197 0.217907) (xy -4.669026 0.209658) (xy -4.648952 0.142064) (xy -4.624254 0.070668)
     (xy -4.599175 0.007420) (xy -4.590143 -0.012592) (xy -4.567002 -0.059187) (xy -4.532755 -0.125136) (xy -4.488881 -0.207731) (xy -4.436861 -0.304264) (xy -4.378173 -0.412026) (xy -4.314297 -0.528308)
     (xy -4.246713 -0.650404) (xy -4.176900 -0.775603) (xy -4.106338 -0.901198) (xy -4.059361 -0.984250) (xy -3.999781 -1.090215) (xy -3.951858 -1.178026) (xy -3.914032 -1.251220) (xy -3.884744 -1.313336)
     (xy -3.862434 -1.367909) (xy -3.845542 -1.418477) (xy -3.832510 -1.468578) (xy -3.821776 -1.521748) (xy -3.821370 -1.524000) (xy -3.812264 -1.596606) (xy -3.806866 -1.687213) (xy -3.805095 -1.788705)
     (xy -3.806869 -1.893967) (xy -3.812108 -1.995884) (xy -3.820730 -2.087342) (xy -3.828397 -2.139439) (xy -3.881273 -2.372396) (xy -3.954243 -2.590130) (xy -4.046734 -2.792073) (xy -4.158176 -2.977659)
     (xy -4.287996 -3.146321) (xy -4.435623 -3.297492) (xy -4.600483 -3.430605) (xy -4.782006 -3.545093) (xy -4.979619 -3.640390) (xy -5.192751 -3.715929) (xy -5.420830 -3.771142) (xy -5.486400 -3.782737)
     (xy -5.537577 -3.791334) (xy -5.585574 -3.799799) (xy -5.613400 -3.805020) (xy -5.630867 -3.806043) (xy -5.672351 -3.807127) (xy -5.736471 -3.808259) (xy -5.821845 -3.809430) (xy -5.927092 -3.810628)
     (xy -6.050828 -3.811842) (xy -6.191674 -3.813062) (xy -6.348245 -3.814276) (xy -6.519161 -3.815474) (xy -6.703040 -3.816645) (xy -6.898500 -3.817778) (xy -7.104158 -3.818861) (xy -7.318633 -3.819885)
     (xy -7.540543 -3.820837) (xy -7.694715 -3.821438) (xy -9.731579 -3.829050) (xy -9.982337 -4.267200) (xy -10.045079 -4.376887) (xy -10.096200 -4.466587) (xy -10.136701 -4.538358) (xy -10.167584 -4.594254)
     (xy -10.189850 -4.636332) (xy -10.204501 -4.666647) (xy -10.212538 -4.687255) (xy -10.214963 -4.700212) (xy -10.212777 -4.707573) (xy -10.206981 -4.711395) (xy -10.199723 -4.713454) (xy -10.182844 -4.714653)
     (xy -10.142208 -4.716069) (xy -10.079461 -4.717676) (xy -9.996244 -4.719447) (xy -9.894201 -4.721356) (xy -9.774976 -4.723376) (xy -9.640211 -4.725483) (xy -9.491550 -4.727648) (xy -9.330636 -4.729846)
     (xy -9.159112 -4.732051) (xy -8.978622 -4.734236) (xy -8.790808 -4.736375) (xy -8.721158 -4.737134) (xy -8.496199 -4.739528) (xy -8.295291 -4.741590) (xy -8.117088 -4.743317) (xy -7.960245 -4.744706)
     (xy -7.823415 -4.745755) (xy -7.705252 -4.746461) (xy -7.604410 -4.746821) (xy -7.519542 -4.746833) (xy -7.449303 -4.746494) (xy -7.392346 -4.745802) (xy -7.347326 -4.744753) (xy -7.312895 -4.743345)
     (xy -7.287708 -4.741576) (xy -7.270419 -4.739441) (xy -7.259681 -4.736940) (xy -7.254308 -4.734210) (xy -7.204426 -4.692170) (xy -7.144416 -4.642512) (xy -7.077003 -4.587403) (xy -7.004914 -4.529010)
     (xy -6.930874 -4.469501) (xy -6.857609 -4.411043) (xy -6.787845 -4.355804) (xy -6.724307 -4.305950) (xy -6.669721 -4.263649) (xy -6.626814 -4.231069) (xy -6.598310 -4.210376) (xy -6.587114 -4.203701)
     (xy -6.566621 -4.212482) (xy -6.545644 -4.230907) (xy -6.530359 -4.246152) (xy -6.498835 -4.276103) (xy -6.453630 -4.318383) (xy -6.397302 -4.370614) (xy -6.332407 -4.430419) (xy -6.261504 -4.495421)
     (xy -6.237713 -4.517158) (xy -5.953976 -4.776203) (xy -5.824963 -4.768678) )(layer F.SilkS) (width  0.010000)
  )
  (fp_poly (pts (xy 4.318313 -4.601010) (xy 4.507702 -4.600811) (xy 4.717454 -4.600508) (xy 4.948702 -4.600110) (xy 5.202576 -4.599625) (xy 5.480208 -4.599061) (xy 5.613400 -4.598783) (xy 5.858199 -4.598229)
     (xy 6.096989 -4.597611) (xy 6.328461 -4.596934) (xy 6.551302 -4.596206) (xy 6.764204 -4.595433) (xy 6.965856 -4.594623) (xy 7.154947 -4.593781) (xy 7.330167 -4.592915) (xy 7.490206 -4.592031)
     (xy 7.633754 -4.591137) (xy 7.759500 -4.590238) (xy 7.866134 -4.589342) (xy 7.952345 -4.588456) (xy 8.016824 -4.587586) (xy 8.058260 -4.586739) (xy 8.073926 -4.586083) (xy 8.165903 -4.578350)
     (xy 8.079993 -4.432300) (xy 7.994082 -4.286250) (xy 5.613116 -4.279093) (xy 5.321155 -4.278224) (xy 5.053454 -4.277430) (xy 4.808872 -4.276680) (xy 4.586269 -4.275944) (xy 4.384504 -4.275195)
     (xy 4.202438 -4.274401) (xy 4.038930 -4.273533) (xy 3.892840 -4.272563) (xy 3.763027 -4.271460) (xy 3.648352 -4.270195) (xy 3.547674 -4.268738) (xy 3.459852 -4.267060) (xy 3.383747 -4.265132)
     (xy 3.318218 -4.262924) (xy 3.262124 -4.260407) (xy 3.214327 -4.257550) (xy 3.173684 -4.254325) (xy 3.139057 -4.250702) (xy 3.109304 -4.246651) (xy 3.083286 -4.242144) (xy 3.059862 -4.237150)
     (xy 3.037892 -4.231640) (xy 3.016235 -4.225585) (xy 2.993752 -4.218955) (xy 2.969302 -4.211720) (xy 2.965510 -4.210615) (xy 2.816706 -4.154295) (xy 2.678798 -4.075339) (xy 2.552873 -3.974539)
     (xy 2.440020 -3.852689) (xy 2.397450 -3.796366) (xy 2.379800 -3.769303) (xy 2.351173 -3.722562) (xy 2.313014 -3.658620) (xy 2.266770 -3.579952) (xy 2.213888 -3.489036) (xy 2.155812 -3.388348)
     (xy 2.093989 -3.280365) (xy 2.029865 -3.167563) (xy 2.016104 -3.143250) (xy 1.968822 -3.059653) (xy 1.924409 -2.981144) (xy 1.882072 -2.906326) (xy 1.841016 -2.833800) (xy 1.800447 -2.762170)
     (xy 1.759573 -2.690038) (xy 1.717597 -2.616005) (xy 1.673727 -2.538674) (xy 1.627169 -2.456648) (xy 1.577129 -2.368528) (xy 1.522812 -2.272917) (xy 1.463425 -2.168417) (xy 1.398173 -2.053631)
     (xy 1.326264 -1.927160) (xy 1.246902 -1.787608) (xy 1.159294 -1.633576) (xy 1.062647 -1.463666) (xy 0.956165 -1.276481) (xy 0.839055 -1.070623) (xy 0.710523 -0.844694) (xy 0.650833 -0.739775)
     (xy 0.085459 0.254000) (xy -0.116468 0.254000) (xy -0.192002 0.253868) (xy -0.245558 0.253180) (xy -0.280556 0.251498) (xy -0.300420 0.248384) (xy -0.308569 0.243399) (xy -0.308426 0.236106)
     (xy -0.305439 0.229792) (xy -0.296934 0.214820) (xy -0.276778 0.179810) (xy -0.246086 0.126687) (xy -0.205970 0.057371) (xy -0.157546 -0.026214) (xy -0.101926 -0.122146) (xy -0.040226 -0.228501)
     (xy 0.026441 -0.343359) (xy 0.096962 -0.464795) (xy 0.115834 -0.497283) (xy 0.238025 -0.707722) (xy 0.362381 -0.922082) (xy 0.487942 -1.138704) (xy 0.613753 -1.355927) (xy 0.738856 -1.572094)
     (xy 0.862293 -1.785544) (xy 0.983106 -1.994619) (xy 1.100339 -2.197659) (xy 1.213034 -2.393004) (xy 1.320234 -2.578996) (xy 1.420981 -2.753976) (xy 1.514318 -2.916283) (xy 1.599287 -3.064259)
     (xy 1.674931 -3.196244) (xy 1.740292 -3.310580) (xy 1.794414 -3.405606) (xy 1.820938 -3.452388) (xy 1.875463 -3.547900) (xy 1.930180 -3.642141) (xy 1.982805 -3.731292) (xy 2.031052 -3.811532)
     (xy 2.072636 -3.879042) (xy 2.105273 -3.930002) (xy 2.117106 -3.947485) (xy 2.240323 -4.103489) (xy 2.377940 -4.238623) (xy 2.530087 -4.352970) (xy 2.696895 -4.446612) (xy 2.878493 -4.519632)
     (xy 3.075012 -4.572112) (xy 3.117850 -4.580469) (xy 3.134187 -4.583305) (xy 3.151651 -4.585895) (xy 3.171374 -4.588249) (xy 3.194487 -4.590375) (xy 3.222122 -4.592281) (xy 3.255409 -4.593975)
     (xy 3.295482 -4.595465) (xy 3.343470 -4.596761) (xy 3.400507 -4.597869) (xy 3.467723 -4.598799) (xy 3.546250 -4.599559) (xy 3.637220 -4.600157) (xy 3.741764 -4.600602) (xy 3.861014 -4.600901)
     (xy 3.996101 -4.601063) (xy 4.148157 -4.601097) (xy 4.318313 -4.601010) )(layer F.SilkS) (width  0.010000)
  )
  (fp_poly (pts (xy 7.302289 -5.890232) (xy 7.528645 -5.890117) (xy 7.742628 -5.889924) (xy 7.943125 -5.889655) (xy 8.129020 -5.889312) (xy 8.299201 -5.888898) (xy 8.452553 -5.888414) (xy 8.587962 -5.887863)
     (xy 8.704314 -5.887248) (xy 8.800496 -5.886570) (xy 8.875393 -5.885832) (xy 8.927892 -5.885036) (xy 8.956878 -5.884185) (xy 8.962585 -5.883562) (xy 8.941330 -5.845977) (xy 8.910781 -5.792737)
     (xy 8.872525 -5.726547) (xy 8.828149 -5.650112) (xy 8.779239 -5.566138) (xy 8.727382 -5.477330) (xy 8.674163 -5.386393) (xy 8.621170 -5.296033) (xy 8.569988 -5.208954) (xy 8.522204 -5.127862)
     (xy 8.479404 -5.055463) (xy 8.443175 -4.994461) (xy 8.415104 -4.947562) (xy 8.396775 -4.917471) (xy 8.389913 -4.906987) (xy 8.380970 -4.905199) (xy 8.357463 -4.903617) (xy 8.318701 -4.902238)
     (xy 8.263995 -4.901063) (xy 8.192655 -4.900090) (xy 8.103991 -4.899317) (xy 7.997313 -4.898745) (xy 7.871931 -4.898372) (xy 7.727155 -4.898197) (xy 7.562296 -4.898220) (xy 7.376662 -4.898438)
     (xy 7.169566 -4.898852) (xy 6.940316 -4.899459) (xy 6.688223 -4.900260) (xy 6.412596 -4.901253) (xy 6.112747 -4.902437) (xy 5.886450 -4.903387) (xy 5.532264 -4.904831) (xy 5.203459 -4.906020)
     (xy 4.900018 -4.906954) (xy 4.621921 -4.907633) (xy 4.369152 -4.908056) (xy 4.141692 -4.908225) (xy 3.939523 -4.908139) (xy 3.762628 -4.907797) (xy 3.610989 -4.907200) (xy 3.484588 -4.906348)
     (xy 3.383406 -4.905241) (xy 3.307427 -4.903879) (xy 3.256632 -4.902261) (xy 3.238500 -4.901190) (xy 3.021245 -4.874221) (xy 2.820827 -4.829321) (xy 2.635587 -4.765520) (xy 2.463868 -4.681847)
     (xy 2.304012 -4.577333) (xy 2.154363 -4.451008) (xy 2.013263 -4.301902) (xy 1.879055 -4.129044) (xy 1.851430 -4.089400) (xy 1.817783 -4.038452) (xy 1.772839 -3.967410) (xy 1.716524 -3.876148)
     (xy 1.648764 -3.764542) (xy 1.569485 -3.632464) (xy 1.478615 -3.479790) (xy 1.376080 -3.306395) (xy 1.261806 -3.112151) (xy 1.135719 -2.896935) (xy 0.997746 -2.660620) (xy 0.847813 -2.403080)
     (xy 0.685848 -2.124191) (xy 0.511775 -1.823825) (xy 0.325522 -1.501859) (xy 0.127016 -1.158166) (xy -0.083819 -0.792621) (xy -0.307054 -0.405097) (xy -0.337376 -0.352425) (xy -0.679154 0.241300)
     (xy -1.247627 0.241300) (xy -1.367104 0.241059) (xy -1.477602 0.240370) (xy -1.576675 0.239279) (xy -1.661876 0.237835) (xy -1.730759 0.236086) (xy -1.780879 0.234079) (xy -1.809790 0.231863)
     (xy -1.816100 0.230181) (xy -1.809841 0.217643) (xy -1.791748 0.184980) (xy -1.762846 0.133972) (xy -1.724163 0.066396) (xy -1.676725 -0.015969) (xy -1.621557 -0.111343) (xy -1.559687 -0.217949)
     (xy -1.492139 -0.334007) (xy -1.419942 -0.457738) (xy -1.363628 -0.554044) (xy -1.300235 -0.662397) (xy -1.225330 -0.790489) (xy -1.140200 -0.936122) (xy -1.046129 -1.097094) (xy -0.944401 -1.271205)
     (xy -0.836304 -1.456254) (xy -0.723121 -1.650042) (xy -0.606138 -1.850367) (xy -0.486640 -2.055029) (xy -0.365912 -2.261828) (xy -0.245240 -2.468563) (xy -0.125908 -2.673033) (xy -0.009203 -2.873038)
     (xy -0.003448 -2.882900) (xy 0.105252 -3.069048) (xy 0.211733 -3.251087) (xy 0.315162 -3.427610) (xy 0.414707 -3.597208) (xy 0.509534 -3.758472) (xy 0.598813 -3.909994) (xy 0.681710 -4.050367)
     (xy 0.757392 -4.178181) (xy 0.825029 -4.292029) (xy 0.883787 -4.390501) (xy 0.932833 -4.472190) (xy 0.971336 -4.535688) (xy 0.998463 -4.579585) (xy 1.009906 -4.597400) (xy 1.174372 -4.825227)
     (xy 1.349558 -5.030167) (xy 1.536143 -5.212663) (xy 1.734806 -5.373160) (xy 1.946225 -5.512100) (xy 2.171079 -5.629928) (xy 2.410047 -5.727087) (xy 2.663806 -5.804021) (xy 2.933035 -5.861173)
     (xy 2.946400 -5.863433) (xy 2.962269 -5.865887) (xy 2.980065 -5.868160) (xy 3.000790 -5.870260) (xy 3.025447 -5.872194) (xy 3.055038 -5.873972) (xy 3.090566 -5.875603) (xy 3.133035 -5.877094)
     (xy 3.183446 -5.878454) (xy 3.242803 -5.879692) (xy 3.312109 -5.880817) (xy 3.392365 -5.881836) (xy 3.484576 -5.882758) (xy 3.589744 -5.883592) (xy 3.708871 -5.884346) (xy 3.842960 -5.885029)
     (xy 3.993015 -5.885649) (xy 4.160038 -5.886215) (xy 4.345031 -5.886736) (xy 4.548998 -5.887219) (xy 4.772942 -5.887673) (xy 5.017864 -5.888108) (xy 5.284769 -5.888530) (xy 5.574658 -5.888950)
     (xy 5.888535 -5.889375) (xy 6.023901 -5.889552) (xy 6.295413 -5.889863) (xy 6.560122 -5.890084) (xy 6.816913 -5.890218) (xy 7.064674 -5.890266) (xy 7.302289 -5.890232) )(layer F.SilkS) (width  0.010000)
  )
  (fp_poly (pts (xy 3.919495 -3.947623) (xy 4.038035 -3.947341) (xy 4.172026 -3.946899) (xy 4.319853 -3.946310) (xy 4.479899 -3.945585) (xy 4.650547 -3.944734) (xy 4.830180 -3.943769) (xy 5.017181 -3.942701)
     (xy 5.209934 -3.941542) (xy 5.406821 -3.940303) (xy 5.606226 -3.938995) (xy 5.806533 -3.937630) (xy 6.006123 -3.936218) (xy 6.203380 -3.934772) (xy 6.396688 -3.933301) (xy 6.584430 -3.931819)
     (xy 6.764989 -3.930335) (xy 6.936747 -3.928861) (xy 7.098089 -3.927409) (xy 7.247397 -3.925989) (xy 7.383055 -3.924614) (xy 7.503445 -3.923294) (xy 7.606951 -3.922040) (xy 7.691957 -3.920864)
     (xy 7.756844 -3.919777) (xy 7.799997 -3.918791) (xy 7.819799 -3.917917) (xy 7.820929 -3.917704) (xy 7.815922 -3.906198) (xy 7.799743 -3.875572) (xy 7.773976 -3.828671) (xy 7.740201 -3.768340)
     (xy 7.700001 -3.697427) (xy 7.654956 -3.618776) (xy 7.650587 -3.611187) (xy 7.607788 -3.536889) (xy 7.554503 -3.444403) (xy 7.492932 -3.337548) (xy 7.425275 -3.220141) (xy 7.353733 -3.096001)
     (xy 7.280505 -2.968945) (xy 7.207791 -2.842791) (xy 7.150385 -2.743200) (xy 7.082583 -2.625526) (xy 7.014851 -2.507869) (xy 6.948994 -2.393372) (xy 6.886817 -2.285178) (xy 6.830125 -2.186429)
     (xy 6.780722 -2.100268) (xy 6.740415 -2.029837) (xy 6.711127 -1.978488) (xy 6.597650 -1.778926) (xy 2.769470 -1.778000) (xy 2.506767 -1.336675) (xy 2.443085 -1.229694) (xy 2.377928 -1.120240)
     (xy 2.313720 -1.012381) (xy 2.252879 -0.910183) (xy 2.197827 -0.817711) (xy 2.150985 -0.739032) (xy 2.115510 -0.679450) (xy 2.074958 -0.611315) (xy 2.024514 -0.526509) (xy 1.967251 -0.430203)
     (xy 1.906243 -0.327568) (xy 1.844564 -0.223774) (xy 1.785288 -0.123993) (xy 1.777703 -0.111221) (xy 1.568450 0.241109) (xy 1.006475 0.241204) (xy 0.889752 0.241085) (xy 0.781229 0.240703)
     (xy 0.683463 0.240090) (xy 0.599010 0.239272) (xy 0.530425 0.238279) (xy 0.480264 0.237139) (xy 0.451084 0.235882) (xy 0.444500 0.234907) (xy 0.450762 0.223259) (xy 0.468957 0.191215)
     (xy 0.498197 0.140304) (xy 0.537593 0.072057) (xy 0.586258 -0.011995) (xy 0.643304 -0.110323) (xy 0.707843 -0.221396) (xy 0.778986 -0.343683) (xy 0.855846 -0.475655) (xy 0.937535 -0.615782)
     (xy 1.023164 -0.762532) (xy 1.043269 -0.796968) (xy 1.143822 -0.969186) (xy 1.250814 -1.152446) (xy 1.362159 -1.343172) (xy 1.475771 -1.537791) (xy 1.589562 -1.732726) (xy 1.701445 -1.924403)
     (xy 1.809333 -2.109246) (xy 1.911140 -2.283680) (xy 2.004779 -2.444130) (xy 2.088162 -2.587021) (xy 2.105189 -2.616200) (xy 2.182629 -2.748690) (xy 2.257616 -2.876544) (xy 2.328974 -2.997785)
     (xy 2.395528 -3.110435) (xy 2.456101 -3.212517) (xy 2.509518 -3.302052) (xy 2.554604 -3.377065) (xy 2.590183 -3.435576) (xy 2.615078 -3.475609) (xy 2.626160 -3.492500) (xy 2.718129 -3.607420)
     (xy 2.821685 -3.707757) (xy 2.932172 -3.789334) (xy 2.998469 -3.826844) (xy 3.065614 -3.859232) (xy 3.126346 -3.884966) (xy 3.185062 -3.904879) (xy 3.246161 -3.919806) (xy 3.314041 -3.930580)
     (xy 3.393100 -3.938034) (xy 3.487737 -3.943001) (xy 3.602349 -3.946315) (xy 3.632200 -3.946935) (xy 3.672761 -3.947402) (xy 3.735242 -3.947665) (xy 3.818026 -3.947735) (xy 3.919495 -3.947623) )(layer F.SilkS) (width  0.010000)
  )
  (fp_poly (pts (xy -6.561082 -5.890093) (xy -6.534216 -5.864073) (xy -6.493468 -5.822822) (xy -6.440495 -5.768068) (xy -6.376955 -5.701542) (xy -6.304506 -5.624974) (xy -6.224806 -5.540093) (xy -6.139512 -5.448630)
     (xy -6.103844 -5.410206) (xy -5.650573 -4.921261) (xy -5.692312 -4.912999) (xy -5.719611 -4.909749) (xy -5.766613 -4.906372) (xy -5.827625 -4.903191) (xy -5.896953 -4.900529) (xy -5.927816 -4.899626)
     (xy -6.121581 -4.894515) (xy -6.354646 -5.163792) (xy -6.587712 -5.433069) (xy -6.846565 -5.173985) (xy -7.105418 -4.914900) (xy -7.305559 -4.914900) (xy -7.373618 -4.915310) (xy -7.431750 -4.916440)
     (xy -7.475671 -4.918144) (xy -7.501100 -4.920277) (xy -7.505700 -4.921732) (xy -7.497196 -4.933033) (xy -7.473005 -4.960475) (xy -7.435113 -5.001977) (xy -7.385505 -5.055463) (xy -7.326167 -5.118851)
     (xy -7.259084 -5.190063) (xy -7.186241 -5.267020) (xy -7.109623 -5.347643) (xy -7.031216 -5.429853) (xy -6.953004 -5.511571) (xy -6.876974 -5.590717) (xy -6.805109 -5.665213) (xy -6.739396 -5.732979)
     (xy -6.681820 -5.791936) (xy -6.634365 -5.840006) (xy -6.599018 -5.875108) (xy -6.577763 -5.895165) (xy -6.572408 -5.899150) (xy -6.561082 -5.890093) )(layer F.SilkS) (width  0.010000)
  )
)
